3c1c1001
279c90d8
3c051000
24a510e8
3c041000
24841300
3c1d1000
27bd12e8
aca00000
00a4182a
1460fffd
24a50004
0c000159
00000000
0800000e
23bdff98
afa10010
afa20014
afa30018
afa4001c
afa50020
afa60024
afa70028
afa8002c
afa90030
afaa0034
afab0038
afac003c
afad0040
afae0044
afaf0048
afb8004c
afb90050
afbf0054
401a7000
235afffc
afba0058
0000d810
afbb005c
0000d812
afbb0060
3c062000
8cc40020
8cc60010
00862024
0c00040c
23a50000
8fa10010
8fa20014
8fa30018
8fa4001c
8fa50020
8fa60024
8fa70028
8fa8002c
8fa90030
8faa0034
8fab0038
8fac003c
8fad0040
8fae0044
8faf0048
8fb8004c
8fb90050
8fbf0054
8fba0058
8fbb005c
03600011
8fbb0060
03600013
23bd0068
341b0001
03400008
409b6000
40026000
03e00008
40846000
3c051000
24a50160
8ca60000
ac06003c
8ca60004
ac060040
8ca60008
ac060044
8ca6000c
03e00008
ac060048
3c1a1000
375a003c
03400008
00000000
ac900000
ac910004
ac920008
ac93000c
ac940010
ac950014
ac960018
ac97001c
ac9e0020
ac9c0024
ac9d0028
ac9f002c
03e00008
34020000
8c900000
8c910004
8c920008
8c93000c
8c940010
8c950014
8c960018
8c97001c
8c9e0020
8c9c0024
8c9d0028
8c9f002c
03e00008
34a20000
00850019
00001012
00002010
03e00008
acc40000
0000000c
03e00008
00000000
3c021000
244210f0
a040000a
00803025
24050009
00404025
3c07cccc
34e7cccd
00c70019
00a82021
24a5ffff
00004810
000918c2
00031080
00431021
00021040
00c21023
24420030
a0820000
04a1fff4
00603025
3c021000
03e00008
244210f0
3c052000
34a50040
00042400
00041027
3c030fff
00431024
aca20000
3c022000
34420030
03e00008
ac440000
3c082000
35080040
30c600ff
30e700ff
00042700
00052e00
00852025
00063500
00862025
00073c00
00872025
00041027
3c03ffff
00431024
ad020000
3c022000
34420030
03e00008
ac440000
3c062000
34c60060
3c03000f
3463ffff
00052a80
00852025
00041027
00431024
acc20000
3c022000
34420050
03e00008
ac440000
3c062000
34c600b0
3c03000f
3463ffff
00052a80
00852025
00041027
00431024
acc20000
3c022000
344200a0
03e00008
ac440000
3c062000
34c600d0
3c03000f
3463ffff
00052a80
00852025
00041027
00431024
acc20000
3c022000
344200c0
03e00008
ac440000
3c062000
34c600f0
3c03000f
3463ffff
00052a80
00852025
00041027
00431024
acc20000
3c022000
344200e0
03e00008
ac440000
3c062000
34c60060
00042500
00041827
3c02fff0
00621824
acc30000
3c022000
344200b0
ac430000
3c022000
34420050
ac440000
3c022000
344200a0
00052d00
03e00008
ac450000
3c022000
34420070
8c420000
03e00008
30420fff
3c022000
34420070
8c420000
03e00008
3042f000
18800006
00001825
24630001
0064102a
1440fffe
24630001
2463ffff
03e00008
00000000
8fa80010
8c820000
8fa90014
14400002
24020001
acc20000
8c830000
240201c2
14620002
2402ffff
acc20000
8ca20000
00000000
14400002
24020001
ace20000
8ca30000
24020262
14620002
2402ffff
ace20000
8d020000
00000000
24420001
1449000c
ad020000
8c820000
8cc30000
00000000
00431021
ac820000
8ca20000
8ce30000
00000000
00431021
aca20000
ad000000
03e00008
00000000
8fa20010
8fa30014
28420004
38420001
38630001
2c630001
00431024
10400009
28a3012c
38630001
38e20001
2c420001
00621824
1060000a
240600c8
10000008
248600a0
38630001
38e20001
2c420001
00621824
10600002
240600c8
00803025
03e00008
00c01025
10a40005
00851023
1c400004
24a20002
10000002
24a2fffe
00a01025
03e00008
00000000
27bdff98
afbf0064
afbe0060
afb7005c
afb60058
afb50054
afb40050
afb3004c
afb20048
afb10044
afb00040
2410007a
afb00018
afb0001c
24020001
afa20020
afa20024
afa00028
24040320
0c0000b6
00802825
24040320
0c0000d0
00802825
24040320
0c0000c3
00802825
24040096
0c0000dd
240500c8
24040320
0c0000ea
00802825
0c000098
3c041111
00002025
00802825
00803025
0c0000a3
00803825
24080001
afa8002c
afa00030
afa00034
241200c8
02408825
24140005
00009825
0260b825
0260f025
0260a825
0100b025
0c0000fc
00000000
2443ffff
2c620010
1040001c
3c021000
244210a8
00031880
00621821
8c620000
00000000
00400008
00000000
afa00030
24140005
10000012
24020001
1000000c
afa00030
afa00030
24140001
1000000c
24020001
24140001
02804025
afa80030
10000007
24020001
24080002
afa80030
24140003
10000002
24020001
00001025
1456ffdd
02002025
0c0000b6
00802825
02202025
0c0000d0
24050262
2404012c
0c0000c3
00002825
24040320
0c0000dd
00802825
8fa8002c
24020001
150201e7
00000000
27a80028
afa80038
24080262
2508ffe2
afa8003c
0040b025
8fa80030
00000000
111600a5
29020002
10400005
00000000
11000008
00000000
100001d3
00000000
24020002
110201c9
2ae2000a
100001ce
00000000
0c000101
00000000
00408025
24021000
16020003
24022000
10000004
26520001
16020005
2a420191
2652ffff
0c000106
24042710
2a420191
14400003
00121027
10000003
24120190
000217c3
02429024
02402025
0c0000c3
00002825
16000003
00000000
0c000106
24042710
8fa80038
afb40014
27a40018
27a5001c
27a60020
27a70024
0c00010f
afa80010
8fa3001c
00000000
2462ffff
2c42001e
1040000c
2642fff1
8fa30018
00000000
0062102a
1440000d
26420073
0043102a
1440000a
00000000
afb60024
10000007
26b50001
00000000
14600004
00000000
00009825
afa0002c
afa00034
8fa3001c
8fa8003c
00000000
0068102a
1440000d
28620262
1040000b
2622fff1
8fa30018
00000000
0062102a
14400011
26220073
0043102a
1440000e
2408ffff
1000000c
afa80024
8fa2001c
24080262
14480008
24080002
afa8002c
8fa80034
00002025
00802825
326700ff
0c0000a3
310600ff
8fa40018
8fa5001c
0c0000b6
00000000
8fa40018
8fa5001c
8fa60020
8fa70024
8fa80034
afb30010
0c000136
afa80014
10510006
00511023
18400003
00000000
10000002
26310001
2631ffff
2a220191
14400003
00111027
10000003
24110190
000217c3
02228824
24020003
16820005
24020005
16b40011
2a62000a
1000000d
26730001
00000000
16820005
00000000
16b4000a
2a62000a
10000006
26730001
16960006
2a62000a
16b60004
00000000
26730001
0000a825
2a62000a
10400005
00002025
8fa80034
00802825
10000007
326700ff
8fa80034
2673fff6
00802825
326700ff
25080001
afa80034
0c0000a3
310600ff
02202025
0c0000d0
24050262
10000135
00000000
0c000101
00000000
00408025
32022000
00021343
14560003
32028000
10000005
2652ffff
000213c3
14560005
2a420191
26520001
0c000106
24042710
2a420191
14400003
00121027
10000003
24120190
000217c3
02429024
02402025
0c0000c3
00002825
32024000
00021383
14560003
32021000
10000005
2631ffff
00021303
14560005
2a220191
26310001
0c000106
24042710
2a220191
14400003
00111027
10000003
24110190
000217c3
02228824
02202025
0c0000d0
24050262
16000003
00000000
0c000106
24042710
8fa80038
afb40014
27a40018
27a5001c
27a60020
27a70024
0c00010f
afa80010
8fa3001c
00000000
2462ffff
2c42001e
1040000c
2642fff1
8fa30018
00000000
0062102a
14400010
26420073
0043102a
1440000d
00000000
afb60024
1000000a
26b50001
14600008
24040002
00802825
00803025
0c0000a3
00803825
afa0002c
afa00034
00009825
8fa3001c
8fa8003c
00000000
0068102a
1440000f
28620262
1040000f
2622fff1
8fa30018
00000000
0062102a
14400013
24020003
26220073
0043102a
1440000f
24020003
2408ffff
1000000c
afa80024
1440000a
24020003
24040001
00802825
00803025
0c0000a3
00803825
afa0002c
afa00034
00009825
24020003
16820005
24020005
16b40011
2a62000a
1000000d
26730001
00000000
16820005
00000000
16b4000a
2a62000a
10000006
26730001
16960006
2a62000a
16b60004
00000000
26730001
0000a825
2a62000a
10400006
00002025
8fa80034
00802825
326700ff
10000008
310600ff
8fa80034
2673fff6
00802825
24060001
326700ff
25080001
afa80034
0c0000a3
00000000
8fa40018
8fa5001c
0c0000b6
00000000
10000097
00000000
0c000101
00000000
00408025
32022000
00021343
14560003
32028000
10000005
2652ffff
000213c3
14560005
2a420191
26520001
0c000106
24042710
2a420191
14400003
00121027
10000003
24120190
000217c3
02429024
02402025
0c0000c3
00002825
32024000
00021383
14560003
32021000
10000005
2631ffff
00021303
14560005
2a220191
26310001
0c000106
24042710
2a220191
14400003
00111027
10000003
24110190
000217c3
02228824
02202025
0c0000d0
24050262
16000003
00000000
0c000106
24042710
8fa80038
afb40014
27a40018
27a5001c
27a60020
27a70024
0c00010f
afa80010
8fa3001c
00000000
2462ffff
2c42001e
1040000b
2642fff1
8fa30018
00000000
0062102a
14400010
26420073
0043102a
1440000d
00000000
1000000b
afb60024
00000000
14600008
00000000
3c040001
0c000106
348486a0
240800dc
afa80018
afa8001c
27de0001
8fa3001c
8fa8003c
00000000
0068102a
1440000f
28620262
1040000f
2622fff1
8fa30018
00000000
0062102a
14400012
2ae2000a
26220073
0043102a
1440000e
2ae2000a
2408ffff
1000000b
afa80024
14400009
2ae2000a
3c040001
0c000106
348486a0
240800dc
afa80018
afa8001c
26f70001
2ae2000a
2bc3000a
00431024
10400005
00002025
33c500ff
00803025
10000009
32e700ff
2408000a
12e80003
24040001
17c80006
24040002
00002825
00a03025
00a03825
0c0000a3
00000000
8fa40018
8fa5001c
0c0000b6
00000000
0017102a
001e182a
00431025
10400002
2ae2000a
24140001
2bc3000a
00431024
1440ff6e
24080003
afa8002c
0000f025
03c0b825
8fa8002c
00000000
1116fe21
00000000
11000007
24020002
8fa8002c
00000000
11020003
24020003
15020010
00000000
24040096
0c0000ea
240500c8
24040320
0c0000b6
00802825
24040320
0c0000d0
00802825
24040320
0c0000c3
00802825
24040320
0c0000dd
00802825
8fbf0064
8fbe0060
8fb7005c
8fb60058
8fb50054
8fb40050
8fb3004c
8fb20048
8fb10044
8fb00040
03e00008
27bd0068
3c022000
34420020
8c420000
00000000
30420002
14400008
3c022000
3c032000
34630020
8c620000
00000000
30420002
1040fffc
3c022000
ac440000
03e00008
00001025
27bdffe0
afb00010
00808025
afbf0018
afb10014
92020000
00000000
1040000d
2411000a
00000000
14510003
00000000
0c0003c9
2404000d
92040000
0c0003c9
26100001
92020000
00000000
1440fff5
00000000
8fbf0018
8fb10014
8fb00010
00001025
03e00008
27bd0020
27bdffe0
afbf0018
afb10014
afb00010
00808825
2410001c
02111006
3044000f
2c82000a
10400003
00000000
10000002
34840030
24840057
0c0003c9
2610fffc
0601fff6
02111006
8fbf0018
8fb10014
8fb00010
03e00008
27bd0020
27bdffe8
afbf0010
0c0003c9
24040049
8fbf0010
00000000
03e00008
27bd0018
3c022000
34420020
8c420000
03e00008
30420001
27bdffe8
afbf0010
0c000414
00000000
1040fffd
3c022000
8c420000
8fbf0010
00000000
03e00008
27bd0018
00000000
00000000
00000000
00000000
00000000
00000000
10000668
10000678
100006b8
10000680
100006b8
100006b8
100006b8
10000690
100006b8
100006b8
100006b8
100006b8
100006b8
100006b8
100006b8
100006a4
00000000
